Data Analysis, Modelling, and Decision-Making - Alluvial Plots
…
   M.F Admit Dept
1 Male   Yes    A
2 Male   Yes    A
3 Male   Yes    A
4 Male   Yes    A
5 Male   Yes    A
6 Male   Yes    A

To put this data in a table, using the %>% pipe operator, we will pass the tidy data, group it by the elements of the alluvial, and then generate the counts.

DUCBT <- DiscriminationUCB %>% group_by(M.F,Dept,Admit) %>% summarise(count = n()) %>% ungroup()
DUCBT

# A tibble: 24 × 4
   M.F    Dept  Admit count
   <fct>  <fct> <fct> <int>
 1 Female A     No       19
 2 Female A     Yes      89
 3 Female B     No        8
 4 Female B     Yes      17
 5 Female C     No      391
 6 Female C     Yes     202
 7 Female D     No      244
 8 Female D     Yes     131
 9 Female E     No      299
10 Female E     Yes      94
# … with 14 more rows
…
