Data Analysis, Modelling, and Decision-Making FAQ - Normal Residuals in Radiant
…
               Robert W. Walker 

      Published

        April 12, 2022

radiant is a very convenient graphical interface for a curated subset of R’s capabilities. In this example, I show how to incorporate additional code into radiant to examine residual normality as a component of validating regression inference.

Let us first begin with some example data. We can read the data off of the github host location for this website.

library(tidyverse)
State.Data <- read_csv(url("https://raw.githubusercontent.com/robertwwalker/DADM-FAQ/main/posts/normal-residuals-in-radiant/data/state77.csv"))
State.Data

# A tibble: 50 × 9
   state       population income illiteracy life_exp murder hs_grad frost   area
   <chr>            <dbl>  <dbl>      <dbl>    <dbl>  <dbl>   <dbl> <dbl>  <dbl>
 1 Alabama           3615   3624        2.1     69.0   15.1    41.3    20  50708
 2 Alaska             365   6315        1.5     69.3   11.3    66.7   152 566432
 3 Arizona           2212   4530        1.8     70.6    7.8    58.1    15 113417
 4 Arkansas          2110   3378        1.9     70.7   10.1    39.9    65  51945
 5 California       21198   5114        1.1     71.7   10.3    62.6    20 156361
 6 Colorado          2541   4884        0.7     72.1    6.8    63.9   166 103766
 7 Connecticut       3100   5348        1.1     72.5    3.1    56     139   4862
 8 Delaware           579   4809        0.9     70.1    6.2    54.6   103   1982
 9 Florida           8277   4815        1.3     70.7   10.7    52.6    11  54090
10 Georgia           4931   4091        2       68.5   13.9    40.6    60  58073
# … with 40 more rows
…
